…
factor_from_logical <- as.factor(logical_sum_xy)

five_variable_df <- tibble(
  x,
  y,
  logical_sum_xy,
  numeric_from_logical,
  factor_from_logical
)

five_variable_df
```

    ## # A tibble: 1,000 x 5
    ##         x       y logical_sum_xy numeric_from_logical factor_from_logical
    ##     <dbl>   <dbl> <lgl>                         <dbl> <fct>              
    ##  1 -0.626 -0.897  FALSE                             0 FALSE              
    ##  2  0.184  0.185  TRUE                              1 TRUE               
    ##  3 -0.836  1.59   TRUE                              1 TRUE               
    ##  4  1.60  -1.13   TRUE                              1 TRUE               
    ##  5  0.330 -0.0803 TRUE                              1 TRUE               
    ##  6 -0.820  0.132  FALSE                             0 FALSE              
    ##  7  0.487  0.708  TRUE                              1 TRUE               
    ##  8  0.738 -0.240  TRUE                              1 TRUE               
    ##  9  0.576  1.98   TRUE                              1 TRUE               
    ## 10 -0.305 -0.139  FALSE                             0 FALSE              
    ## # ... with 990 more rows
…
